module test

go 1.18

require (
	github.com/disgoorg/disgo v0.15.0
	github.com/disgoorg/json v1.0.0
	github.com/disgoorg/log v1.2.0
	github.com/disgoorg/snowflake/v2 v2.0.1
	github.com/google/uuid v1.3.0
	github.com/jackc/pgx/v5 v5.2.0
	golang.org/x/oauth2 v0.0.0-20221014153046-6fdb5e3db783
	google.golang.org/api v0.103.0
)

require (
	cloud.google.com/go/compute v1.12.1 // indirect
	cloud.google.com/go/compute/metadata v0.2.1 // indirect
	github.com/golang/groupcache v0.0.0-20200121045136-8c9f03a8e57e // indirect
	github.com/golang/protobuf v1.5.2 // indirect
	github.com/googleapis/enterprise-certificate-proxy v0.2.0 // indirect
	github.com/googleapis/gax-go/v2 v2.7.0 // indirect
	github.com/gorilla/websocket v1.5.0 // indirect
	github.com/jackc/pgpassfile v1.0.0 // indirect
	github.com/jackc/pgservicefile v0.0.0-20200714003250-2b9c44734f2b // indirect
	github.com/jackc/puddle/v2 v2.1.2 // indirect
	github.com/sasha-s/go-csync v0.0.0-20210812194225-61421b77c44b // indirect
	go.opencensus.io v0.24.0 // indirect
	go.uber.org/atomic v1.10.0 // indirect
	golang.org/x/crypto v0.0.0-20220829220503-c86fa9a7ed90 // indirect
	golang.org/x/exp v0.0.0-20220325121720-054d8573a5d8 // indirect
	golang.org/x/net v0.0.0-20221014081412-f15817d10f9b // indirect
	golang.org/x/sync v0.1.0 // indirect
	golang.org/x/sys v0.0.0-20220728004956-3c1f35247d10 // indirect
	golang.org/x/text v0.4.0 // indirect
	google.golang.org/appengine v1.6.7 // indirect
	google.golang.org/genproto v0.0.0-20221027153422-115e99e71e1c // indirect
	google.golang.org/grpc v1.50.1 // indirect
	google.golang.org/protobuf v1.28.1 // indirect
)
